newmtl Extract5SG
illum 4
Kd 0.50 0.50 0.50
Ka 0.50 0.50 0.50
Tf 1.00 1.00 1.00
Ni 1.00
Ks 0.00 0.00 0.00
Ns 0.00
newmtl PM3D_Sphere3D2SG
illum 4
Kd 0.50 0.50 0.50
Ka 0.50 0.50 0.50
Tf 1.00 1.00 1.00
Ni 1.00
Ks 0.00 0.00 0.00
Ns 0.00
newmtl initialShadingGroup
illum 4
Kd 0.50 0.50 0.50
Ka 0.00 0.00 0.00
Tf 1.00 1.00 1.00
Ni 1.00
newmtl versao_2SG
illum 4
Kd 0.50 0.50 0.50
Ka 0.50 0.50 0.50
Tf 1.00 1.00 1.00
Ni 1.00
Ks 0.00 0.00 0.00
Ns 0.00
